<svg xmlns="http://www.w3.org/2000/svg" width="18" height="17" fill="none">
  <path fill="currentColor" fill-rule="evenodd" d="M11.777 16.707 3.424 8.354 11.777 0l2.506 2.506-5.847 5.848 5.847 5.847-2.506 2.506Z" clip-rule="evenodd"/>
</svg>
