<svg width="206" height="101" viewBox="0 0 206 101" fill="none" xmlns="http://www.w3.org/2000/svg">
<path d="M179.632 32.8039C179.507 32.8761 179.439 33.0193 179.46 33.1625C179.482 33.3073 179.59 33.4226 179.731 33.4571C180.091 33.5379 181.114 33.8303 181.52 34.1911C181.842 34.4725 182.086 35.0169 182.214 35.3711C181.925 35.5503 181.378 35.8493 180.84 35.9198C180.054 36.0154 178.992 35.4798 178.983 35.476C178.834 35.4011 178.66 35.4372 178.555 35.5607C178.448 35.6848 178.44 35.8662 178.535 35.9985C178.544 36.0111 179.38 37.2102 179.081 38.9646C178.776 40.7447 177.457 42.4653 175.16 44.0803C173.348 45.3543 171.694 46.0009 170.241 46.0009C167.87 46.0009 166.847 44.2809 166.805 44.2082C166.722 44.065 166.553 43.9967 166.391 44.0459C166.231 44.0972 166.127 44.2508 166.143 44.4175C166.177 44.7848 166.216 45.8429 166.001 46.3425C165.829 46.7349 165.388 47.1366 165.092 47.3689C164.832 47.1514 164.38 46.7267 164.143 46.2359C163.868 45.6576 163.95 44.6717 164.004 44.3383C164.031 44.1803 163.945 44.0289 163.801 43.9628C163.754 43.9415 163.705 43.9306 163.654 43.9306C163.55 43.9306 163.448 43.9754 163.377 44.0568C163.358 44.0803 163.341 44.106 163.327 44.1333C163.293 44.2038 162.445 45.8817 160.027 45.8817C158.427 45.8817 156.512 45.1521 154.336 43.7158C149.162 40.2987 151.484 36.1925 151.585 36.0198C151.66 35.8919 151.648 35.7296 151.553 35.6165C151.459 35.4995 151.302 35.4563 151.163 35.5033C151.151 35.5077 149.988 35.9198 149.295 35.8537C148.871 35.8192 148.342 35.5033 148.025 35.2771C148.167 34.9677 148.455 34.4233 148.867 34.0654C149.349 33.6467 150.324 33.4614 150.659 33.4248C150.828 33.4079 150.961 33.2712 150.975 33.1002C150.989 32.9318 150.879 32.7739 150.714 32.729C150.699 32.7247 149.184 32.2935 148.323 30.6615C147.464 29.0338 147.515 26.8034 148.474 24.034C150.003 19.6053 152.531 18.944 153.903 18.944C154.564 18.944 155.009 19.0932 155.013 19.0954C155.167 19.1468 155.334 19.091 155.424 18.9588C155.513 18.8254 155.504 18.6494 155.399 18.5275C155.159 18.251 154.51 17.4159 154.367 16.877C154.258 16.4671 154.38 15.8833 154.487 15.5226C154.824 15.5439 155.444 15.6188 155.929 15.8762C156.488 16.1747 156.971 17.024 157.11 17.3262C157.182 17.4798 157.351 17.5629 157.515 17.5246C157.679 17.4864 157.794 17.3372 157.789 17.1683C157.788 17.1513 157.755 15.5057 159.101 14.1185C160.341 12.838 162.329 12.187 165.047 12.181C167.813 12.181 169.805 12.8358 170.966 14.1295C172.2 15.5035 172.037 17.1579 172.035 17.1748C172.017 17.3394 172.116 17.4946 172.273 17.5481C172.429 17.6033 172.604 17.5416 172.691 17.4011C173.028 16.8589 173.72 15.9068 174.14 15.6636C174.537 15.4314 175.176 15.3865 175.48 15.3778C175.558 15.7085 175.669 16.3189 175.565 16.8546C175.445 17.4754 174.774 18.186 174.525 18.4084C174.401 18.5193 174.372 18.703 174.454 18.8489C174.538 18.9938 174.711 19.0632 174.871 19.0123C174.884 19.0091 179.384 17.6421 181.759 24.5407C183.748 30.3133 179.801 32.7034 179.632 32.8039ZM182.432 24.3089C180.528 18.7817 177.329 18.1286 175.68 18.1827C175.933 17.8438 176.179 17.4224 176.263 16.989C176.447 16.0331 176.104 14.9602 176.09 14.9154C176.044 14.776 175.918 14.6777 175.771 14.6706C175.771 14.6706 175.703 14.6673 175.588 14.6673C175.158 14.6673 174.351 14.7165 173.782 15.0493C173.422 15.2581 173.016 15.7243 172.689 16.1544C172.573 15.4543 172.269 14.5219 171.505 13.666C170.204 12.2084 168.031 11.47 165.005 11.47C162.127 11.4765 159.968 12.2013 158.589 13.6234C157.755 14.4847 157.38 15.4281 157.212 16.1277C156.965 15.7959 156.642 15.4516 156.263 15.2499C155.466 14.8269 154.451 14.8034 154.231 14.8034H154.228C154.083 14.8056 153.955 14.8963 153.903 15.0318C153.883 15.0788 153.453 16.208 153.679 17.0595C153.781 17.4432 154.04 17.8854 154.29 18.2483C152.802 18.1351 149.622 18.5319 147.8 23.8012C146.773 26.7739 146.739 29.1984 147.701 31.0091C148.224 31.9885 148.938 32.5924 149.519 32.9509C149.131 33.075 148.712 33.2587 148.399 33.5292C147.662 34.1719 147.273 35.2284 147.257 35.2732C147.206 35.4115 147.248 35.5695 147.363 35.6657C147.404 35.6995 148.362 36.4937 149.239 36.562C149.659 36.5981 150.215 36.4959 150.652 36.3893C150.125 37.883 149.527 41.3913 153.942 44.3066C156.237 45.8238 158.285 46.5917 160.027 46.5917C161.626 46.5917 162.65 45.9561 163.246 45.3882C163.267 45.7746 163.336 46.1933 163.502 46.5409C163.924 47.4203 164.84 48.075 164.878 48.1029C164.94 48.1477 165.011 48.169 165.084 48.169C165.153 48.169 165.221 48.1499 165.28 48.1095C165.322 48.0816 166.305 47.4246 166.653 46.6239C166.799 46.2851 166.857 45.8194 166.875 45.3991C167.509 46.0031 168.602 46.7114 170.241 46.7114C171.843 46.7114 173.636 46.0227 175.57 44.6607C178.036 42.9276 179.454 41.0459 179.784 39.0652C179.967 37.9704 179.775 37.0681 179.549 36.4554C179.884 36.5576 180.274 36.6407 180.647 36.6407H180.648C180.744 36.6407 180.838 36.6347 180.931 36.6238C181.897 36.4959 182.807 35.8302 182.846 35.8023C182.963 35.7148 183.015 35.5651 182.977 35.4224C182.964 35.3754 182.646 34.2337 181.99 33.6571C181.642 33.3499 181.062 33.1155 180.597 32.9619C181.777 31.9502 184.117 29.2005 182.432 24.3089Z" fill="#C1002B"/>
<path d="M7.97617 59.3006H5.94492V52.4053H7.97617C11.0397 52.4053 12.2646 53.6645 12.2974 55.7239C12.3297 57.5631 11.3619 59.3006 7.97617 59.3006ZM15.5541 55.8535C15.5541 52.0511 12.7816 49.6993 8.33066 49.6993H2.78455V71.6722H5.94492V62.1366H7.26717C8.87991 62.1366 10.2011 62.6531 13.1038 67.1627L16.0059 71.6722H19.7779C18.2626 69.5784 17.715 68.8356 16.78 67.3228C15.1033 64.5846 13.8784 62.5552 11.8789 61.2315C14.2318 60.2991 15.5541 58.3982 15.5541 55.8535Z" fill="#C1002B"/>
<path d="M24.9788 60.6856C24.9788 55.8535 28.6239 52.3113 33.5261 52.3113C38.4595 52.3113 42.1024 55.8535 42.1024 60.6856C42.1024 65.487 38.4595 69.0641 33.5261 69.0641C28.6239 69.0641 24.9788 65.487 24.9788 60.6856ZM45.3602 60.6856C45.3602 54.567 40.7813 49.4092 33.5261 49.4092C26.3968 49.4092 21.7222 54.597 21.7222 60.6856C21.7222 66.644 26.2699 71.9619 33.461 71.9619C40.9098 71.9619 45.3602 66.614 45.3602 60.6856Z" fill="#C1002B"/>
<path d="M54.8172 71.6722H57.9781V60.075L66.137 49.6993H62.3306L56.3648 57.2729L50.4631 49.6993H46.6589L54.8172 60.0406V71.6722Z" fill="#C1002B"/>
<path d="M72.2389 62.3612L75.5273 54.4029L79.0755 62.3612H72.2389ZM74.4627 49.5714L65.015 71.6722H68.2404L71.0129 65.195H80.365L83.2978 71.6722H86.5238L76.6876 49.5714H74.4627Z" fill="#C1002B"/>
<path d="M91.3322 49.6993V71.6722H104.426V68.8356H94.492V49.6993H91.3322Z" fill="#C1002B"/>
<path d="M14.6197 92.3214H18.8436V96.8354C17.3282 97.3174 15.7806 97.7038 14.0715 97.7038C8.84655 97.7038 5.17139 94.2573 5.17139 89.3591C5.17139 84.5916 8.87992 80.951 13.6509 80.951C16.2964 80.951 18.9732 81.6916 21.5521 83.1105V79.9203C18.1023 78.4692 16.2964 78.0511 13.717 78.0511C7.00952 78.0511 1.91364 82.9826 1.91364 89.4553C1.91364 95.9008 6.87932 100.604 13.6197 100.604C16.6838 100.604 19.07 100.087 22.0039 98.7986V89.487H14.6197V92.3214Z" fill="#C1002B"/>
<path d="M34.2621 87.9419H32.2308V81.0494H34.2621C37.3251 81.0494 38.5505 82.3021 38.5833 84.3653C38.6156 86.2011 37.6478 87.9419 34.2621 87.9419ZM38.1637 89.8756C40.5177 88.941 41.84 87.0417 41.84 84.4937C41.84 80.693 39.0664 78.3434 34.6155 78.3434H29.0704V100.314H32.2308V90.7785H33.552C35.1647 90.7785 36.487 91.295 39.3897 95.8045L42.2918 100.314H46.0644C44.5485 98.2203 44.0009 97.4792 43.0654 95.9619C41.3881 93.2243 40.1621 91.1944 38.1637 89.8756Z" fill="#C1002B"/>
<path d="M54.0652 90.6479H63.0616V87.8146H54.0652V81.1751H63.3838V78.3434H50.9037V100.314H63.6743V97.4792H54.0652V90.6479Z" fill="#C1002B"/>
<path d="M72.6098 90.6479H81.6057V87.8146H72.6098V81.1751H81.9296V78.3434H69.4506V100.314H82.219V97.4792H72.6098V90.6479Z" fill="#C1002B"/>
<path d="M105.375 95.352L90.4768 78.3434H87.9614V100.314H90.9298V83.399L105.634 100.314H108.342V78.3434H105.375V95.352Z" fill="#C1002B"/>
<path d="M137.628 93.4844L131.501 78.3434H128.502L122.407 93.4844L116.342 78.3434H113.183L122.084 100.508H122.698L129.986 82.5305L137.209 100.508H137.82L146.754 78.3434H143.626L137.628 93.4844Z" fill="#C1002B"/>
<path d="M154.82 78.3434H151.66V100.314H154.82V78.3434Z" fill="#C1002B"/>
<path d="M164.495 89.3591C164.495 84.5277 168.236 80.951 173.267 80.951C175.815 80.951 178.137 81.6594 180.844 83.2367V79.8563C177.846 78.5992 175.558 78.0511 173.301 78.0511C166.299 78.0511 161.238 82.9487 161.238 89.6494C161.238 94.2573 164.85 100.604 173.106 100.604C176.557 100.604 178.91 99.7999 181.071 98.6701V95.2241C178.587 96.8354 175.878 97.7038 173.396 97.7038C168.106 97.7038 164.495 94.2912 164.495 89.3591Z" fill="#C1002B"/>
<path d="M202.841 78.3434V87.9102H190.523V78.3434H187.362V100.314H190.523V90.7441H202.841V100.314H206V78.3434H202.841Z" fill="#C1002B"/>
<path d="M116.841 62.7362C116.976 62.6187 117.123 62.4891 117.285 62.3377C117.447 62.1902 117.61 62.0623 117.781 61.9573C117.976 61.8398 118.162 61.748 118.342 61.6759C118.522 61.6054 118.716 61.5731 118.923 61.5731C119.269 61.5731 119.558 61.6349 119.792 61.7633C120.026 61.8934 120.21 62.0683 120.344 62.2907C120.473 62.5017 120.566 62.7619 120.621 63.0756C120.679 63.3893 120.705 63.697 120.705 64.008C120.705 64.6551 120.626 65.2886 120.468 65.91C120.311 66.5287 120.071 67.09 119.747 67.5895C119.457 68.0525 119.103 68.4175 118.697 68.6908C118.29 68.9619 117.858 69.0985 117.394 69.0985C117.147 69.0985 116.924 69.0641 116.717 68.9936C116.515 68.9215 116.328 68.8209 116.165 68.6864C116.03 68.5799 115.918 68.458 115.831 68.317C115.743 68.1782 115.689 68.0503 115.672 67.9306L116.841 62.7362ZM116.261 58.1736L113.995 68.0973C114.141 68.3296 114.301 68.5433 114.484 68.7335C114.666 68.9215 114.893 69.0942 115.169 69.245C115.437 69.3926 115.762 69.5079 116.146 69.5932C116.529 69.6784 116.971 69.7172 117.474 69.7172C118.14 69.7172 118.772 69.5675 119.367 69.2663C119.964 68.9679 120.497 68.552 120.972 68.029C121.435 67.5147 121.803 66.902 122.084 66.1936C122.363 65.4831 122.505 64.7404 122.505 63.9632C122.505 62.9411 122.251 62.1284 121.741 61.5217C121.234 60.9205 120.535 60.6172 119.646 60.6172C119.269 60.6172 118.877 60.7047 118.477 60.8839C118.077 61.0616 117.613 61.3851 117.089 61.8508H117.053L118.381 56.0289L118.293 55.8983L115.05 56.0885L114.926 56.6203C115.12 56.6438 115.31 56.6651 115.496 56.6821C115.683 56.699 115.839 56.7356 115.962 56.7886C116.09 56.8466 116.189 56.9318 116.261 57.0472C116.328 57.1625 116.364 57.3221 116.364 57.5314C116.364 57.6314 116.354 57.7298 116.335 57.826C116.312 57.9238 116.29 58.0391 116.261 58.1736Z" fill="#C1002B"/>
<path d="M129.933 61.8617C130.226 62.2754 130.375 62.8963 130.375 63.7271C130.375 64.3944 130.31 65.0415 130.172 65.675C130.04 66.309 129.849 66.8719 129.6 67.3633C129.347 67.8672 129.021 68.2787 128.619 68.6072C128.216 68.934 127.756 69.0986 127.235 69.0986C126.655 69.0986 126.219 68.8827 125.929 68.4536C125.641 68.0246 125.496 67.3911 125.496 66.556C125.496 66.0313 125.554 65.4575 125.663 64.8344C125.773 64.213 125.948 63.6478 126.186 63.1395C126.496 62.47 126.866 61.983 127.294 61.6863C127.72 61.3873 128.178 61.2381 128.662 61.2381C129.216 61.2381 129.637 61.4452 129.933 61.8617ZM126.75 61.0872C126.105 61.3982 125.565 61.8081 125.126 62.3164C124.698 62.8258 124.351 63.415 124.094 64.0851C123.837 64.7573 123.707 65.481 123.707 66.2598C123.707 67.3163 124.008 68.1569 124.614 68.7826C125.216 69.4052 126.006 69.7172 126.972 69.7172C127.808 69.7172 128.541 69.5571 129.174 69.2325C129.808 68.9105 130.35 68.4793 130.799 67.9393C131.243 67.4207 131.58 66.8145 131.816 66.1275C132.048 65.4378 132.163 64.7491 132.163 64.0594C132.163 63.0308 131.869 62.2033 131.284 61.5688C130.698 60.9331 129.884 60.6172 128.846 60.6172C128.093 60.6172 127.394 60.773 126.75 61.0872Z" fill="#C1002B"/>
<path d="M139.016 62.7979C139.016 62.9881 139.093 63.1652 139.251 63.321C139.408 63.4811 139.645 63.5582 139.957 63.5582C140.193 63.5582 140.371 63.5156 140.499 63.4303C140.624 63.3467 140.74 63.2253 140.843 63.0674C140.931 62.9411 140.996 62.7788 141.043 62.5848C141.093 62.3864 141.115 62.2071 141.115 62.0448C141.115 61.7398 141.084 61.5092 141.024 61.3469C140.959 61.1867 140.867 61.0463 140.74 60.9227C140.615 60.8118 140.467 60.7325 140.292 60.6877C140.117 60.6385 139.939 60.6172 139.749 60.6172C139.361 60.6172 138.986 60.7369 138.627 60.9779C138.268 61.2168 137.742 61.6371 137.048 62.2394H136.997C136.997 61.7333 136.899 61.3512 136.699 61.0976C136.5 60.8435 136.167 60.7156 135.696 60.7156C135.444 60.7156 135.142 60.767 134.793 60.8648C134.438 60.9654 134.036 61.1168 133.579 61.3212L133.447 61.883C133.559 61.8552 133.714 61.8147 133.914 61.7715C134.112 61.7267 134.275 61.7032 134.404 61.7032C134.737 61.7032 134.96 61.759 135.072 61.8721C135.182 61.9809 135.238 62.2033 135.238 62.5296C135.238 62.6613 135.212 62.8685 135.154 63.1483C135.099 63.4303 135.057 63.6391 135.029 63.7801L133.746 69.4522H135.387L136.803 63.1865C137.126 62.8176 137.433 62.5214 137.721 62.2989C138.009 62.0771 138.265 61.9065 138.49 61.7972C138.718 61.6863 138.912 61.6097 139.07 61.5731C139.23 61.5349 139.344 61.5157 139.419 61.5157C139.323 61.7398 139.233 61.9617 139.144 62.188C139.06 62.4099 139.016 62.6143 139.016 62.7979Z" fill="#C1002B"/>
<path d="M148.093 65.675C147.957 66.309 147.766 66.8719 147.518 67.3633C147.266 67.8672 146.941 68.2787 146.538 68.6072C146.138 68.934 145.674 69.0986 145.156 69.0986C144.573 69.0986 144.138 68.8827 143.851 68.4536C143.559 68.0246 143.418 67.3911 143.418 66.556C143.418 66.0313 143.472 65.4575 143.582 64.8344C143.694 64.213 143.869 63.6478 144.108 63.1395C144.417 62.47 144.785 61.983 145.215 61.6863C145.642 61.3873 146.096 61.2381 146.581 61.2381C147.135 61.2381 147.558 61.4452 147.855 61.8617C148.149 62.2754 148.295 62.8963 148.295 63.7271C148.295 64.3944 148.228 65.0415 148.093 65.675ZM146.764 60.6172C146.014 60.6172 145.316 60.773 144.669 61.0872C144.026 61.3982 143.484 61.8081 143.048 62.3164C142.615 62.8258 142.269 63.415 142.013 64.0851C141.757 64.7573 141.629 65.481 141.629 66.2598C141.629 67.3163 141.931 68.1569 142.536 68.7826C143.139 69.4052 143.924 69.7172 144.894 69.7172C145.726 69.7172 146.46 69.5571 147.093 69.2325C147.726 68.9105 148.271 68.4793 148.718 67.9393C149.161 67.4207 149.501 66.8145 149.734 66.1275C149.966 65.4378 150.084 64.7491 150.084 64.0594C150.084 63.0308 149.79 62.2033 149.202 61.5688C148.619 60.9331 147.805 60.6172 146.764 60.6172Z" fill="#C1002B"/>
<path d="M159.579 68.6093C159.244 68.6093 159.005 68.5498 158.863 68.4301C158.72 68.3104 158.648 68.0841 158.648 67.7518C158.648 67.6534 158.674 67.4829 158.72 67.2391C158.767 66.9981 158.819 66.7571 158.877 66.5183L160.178 60.8822L160.074 60.7494L158.54 60.8566L157.014 67.4441C156.619 67.8436 156.226 68.1399 155.83 68.3383C155.439 68.5328 155.056 68.6328 154.682 68.6328C154.316 68.6328 154.048 68.5175 153.88 68.2913C153.71 68.0628 153.626 67.754 153.626 67.361C153.626 67.2501 153.645 67.0899 153.68 66.8762C153.719 66.6631 153.769 66.4352 153.826 66.1892L154.598 62.9498C154.645 62.7706 154.68 62.5869 154.704 62.4082C154.73 62.2246 154.738 62.0836 154.738 61.9764C154.738 61.5731 154.631 61.2637 154.412 61.0462C154.192 60.8265 153.851 60.7155 153.384 60.7155C153.173 60.7155 152.894 60.7707 152.547 60.8757C152.199 60.9801 151.799 61.1358 151.342 61.3403L151.21 61.9065C151.322 61.8742 151.475 61.836 151.672 61.789C151.872 61.7398 152.035 61.7163 152.164 61.7163C152.495 61.7163 152.714 61.7715 152.821 61.8786C152.927 61.9852 152.984 62.2033 152.984 62.5317C152.984 62.7104 152.964 62.9006 152.925 63.099C152.889 63.2974 152.84 63.5243 152.782 63.7844L152.103 66.5581C152.012 66.9364 151.958 67.2222 151.936 67.4146C151.911 67.6086 151.899 67.7753 151.899 67.9136C151.899 68.441 152.057 68.8657 152.367 69.1881C152.672 69.5139 153.107 69.674 153.671 69.674C154.037 69.674 154.333 69.6423 154.564 69.5822C154.787 69.5204 155.042 69.4204 155.324 69.2794C155.564 69.1559 155.805 69.0045 156.05 68.8209C156.293 68.6394 156.551 68.441 156.82 68.2229H156.872C156.872 68.5924 156.986 68.9127 157.218 69.1881C157.449 69.4609 157.802 69.5975 158.278 69.5975C158.551 69.5975 158.851 69.5483 159.175 69.4478C159.5 69.3499 159.906 69.2023 160.391 69.0045L160.522 68.441C160.41 68.4836 160.254 68.5219 160.049 68.5563C159.847 68.5924 159.687 68.6093 159.579 68.6093Z" fill="#C1002B"/>
<path d="M166.234 68.3104C165.83 68.5454 165.424 68.6651 165.017 68.6651C164.695 68.6651 164.432 68.605 164.23 68.4859C164.028 68.3662 163.867 68.1995 163.747 67.982C163.623 67.7666 163.535 67.5125 163.487 67.2244C163.437 66.9364 163.411 66.6161 163.411 66.2751C163.411 65.6367 163.505 65.0049 163.692 64.3731C163.878 63.744 164.121 63.2057 164.417 62.7619C164.738 62.2908 165.099 61.9191 165.498 61.6436C165.899 61.3747 166.324 61.2381 166.774 61.2381C167.083 61.2381 167.334 61.2807 167.534 61.3616C167.732 61.4431 167.897 61.554 168.024 61.6928C168.156 61.8382 168.249 62.0022 168.299 62.1711C168.351 62.3438 168.376 62.5126 168.376 62.6744L167.381 67.4037C167.019 67.7732 166.639 68.0738 166.234 68.3104ZM161.536 72.9271C161.711 73.0485 161.952 73.149 162.259 73.2239C162.566 73.2999 162.964 73.3365 163.448 73.3365C164.16 73.3365 164.8 73.2452 165.363 73.0638C165.929 72.8779 166.444 72.5702 166.912 72.139C167.368 71.7193 167.77 71.1492 168.117 70.4278C168.463 69.7063 168.751 68.8231 168.973 67.7797L170.446 60.8823L170.339 60.7495L168.734 61.1616C168.504 61.0146 168.201 60.8883 167.83 60.7817C167.458 60.673 167.061 60.6172 166.639 60.6172C165.963 60.6172 165.312 60.773 164.695 61.0872C164.075 61.3982 163.544 61.8103 163.103 62.3268C162.64 62.8581 162.276 63.4642 162.009 64.1468C161.744 64.83 161.613 65.5318 161.613 66.2576C161.613 67.3097 161.84 68.1333 162.297 68.7313C162.758 69.3308 163.409 69.6314 164.256 69.6314C164.589 69.6314 164.892 69.5806 165.168 69.48C165.438 69.3839 165.71 69.2538 165.979 69.0964C166.214 68.9679 166.438 68.8187 166.649 68.6498C166.863 68.4815 167.028 68.3492 167.146 68.2552L167.205 68.2722C167.047 69.1647 166.835 69.8965 166.567 70.4644C166.298 71.0295 166.008 71.4864 165.699 71.8236C165.393 72.1477 165.058 72.3844 164.692 72.532C164.321 72.6774 163.979 72.7495 163.66 72.7495H163.392C163.346 72.6451 163.279 72.4872 163.183 72.2778C163.09 72.0663 162.993 71.8849 162.894 71.7362C162.8 71.5914 162.679 71.4547 162.527 71.3285C162.375 71.205 162.19 71.1405 161.975 71.1405C161.7 71.1405 161.485 71.2285 161.328 71.4072C161.169 71.5853 161.089 71.8067 161.089 72.0685C161.089 72.2095 161.119 72.3549 161.183 72.5128C161.243 72.6642 161.36 72.8052 161.536 72.9271Z" fill="#C1002B"/>
<path d="M174.371 58.1736L171.755 69.4522H173.398L174.889 63.0264C175.275 62.5952 175.686 62.2585 176.116 62.0175C176.545 61.7803 176.946 61.6606 177.316 61.6606C177.679 61.6606 177.953 61.7737 178.14 62.0022C178.326 62.2306 178.42 62.5383 178.42 62.9286C178.42 63.0521 178.397 63.2166 178.362 63.4194C178.324 63.6221 178.271 63.8528 178.209 64.102L177.35 67.3676C177.296 67.577 177.257 67.7562 177.235 67.9136C177.211 68.0672 177.201 68.2104 177.201 68.3383C177.201 68.693 177.318 68.9936 177.55 69.2346C177.786 69.4757 178.134 69.5975 178.603 69.5975C178.901 69.5975 179.195 69.5484 179.488 69.4522C179.778 69.356 180.188 69.2024 180.715 68.9936L180.846 68.4323C180.736 68.4727 180.575 68.5132 180.369 68.552C180.161 68.5903 180.003 68.6094 179.892 68.6094C179.562 68.6094 179.321 68.5498 179.175 68.4301C179.029 68.3104 178.955 68.0842 178.955 67.7519C178.955 67.6174 178.983 67.4272 179.035 67.1862C179.087 66.9424 179.139 66.7293 179.186 66.5434L179.923 63.7331C179.992 63.4729 180.043 63.2057 180.076 62.9368C180.107 62.6679 180.123 62.4826 180.123 62.376C180.123 61.853 179.966 61.4261 179.655 61.1042C179.34 60.7795 178.905 60.6172 178.348 60.6172C177.748 60.6172 177.215 60.7413 176.743 60.9911C176.272 61.2359 175.738 61.6054 175.141 62.088H175.105L176.511 56.0289L176.419 55.8983L173.147 56.0885L173.023 56.6203C173.217 56.6438 173.415 56.6651 173.61 56.6821C173.804 56.699 173.958 56.7356 174.07 56.7886C174.199 56.8466 174.301 56.9318 174.369 57.0472C174.442 57.1603 174.475 57.3199 174.475 57.5314C174.475 57.638 174.466 57.7364 174.447 57.8304C174.425 57.9238 174.398 58.037 174.371 58.1736Z" fill="#C1002B"/>
<path d="M188.513 68.4536C188.225 68.0246 188.079 67.3911 188.079 66.556C188.079 66.0313 188.138 65.4575 188.246 64.8344C188.356 64.213 188.532 63.6478 188.769 63.1395C189.079 62.47 189.448 61.983 189.875 61.6863C190.307 61.3873 190.761 61.2381 191.244 61.2381C191.799 61.2381 192.224 61.4452 192.517 61.8617C192.81 62.2754 192.957 62.8963 192.957 63.7271C192.957 64.3944 192.892 65.0415 192.757 65.675C192.624 66.309 192.429 66.8719 192.179 67.3633C191.931 67.8672 191.602 68.2787 191.199 68.6072C190.799 68.934 190.34 69.0986 189.819 69.0986C189.236 69.0986 188.803 68.8827 188.513 68.4536ZM191.758 69.2325C192.393 68.9105 192.934 68.4793 193.382 67.9393C193.823 67.4207 194.163 66.8145 194.396 66.1275C194.629 65.4378 194.747 64.7491 194.747 64.0594C194.747 63.0308 194.455 62.2033 193.867 61.5688C193.28 60.9331 192.467 60.6172 191.43 60.6172C190.675 60.6172 189.977 60.773 189.334 61.0872C188.688 61.3982 188.147 61.8081 187.71 62.3164C187.277 62.8258 186.932 63.415 186.677 64.0851C186.421 64.7573 186.292 65.481 186.292 66.2598C186.292 67.3163 186.593 68.1569 187.198 68.7826C187.8 69.4052 188.587 69.7172 189.555 69.7172C190.392 69.7172 191.125 69.5571 191.758 69.2325Z" fill="#C1002B"/>
<path d="M201.319 56.2186C200.841 56.4323 200.407 56.7247 200.029 57.0985C199.644 57.4778 199.298 57.9391 198.997 58.4813C198.692 59.0229 198.47 59.6334 198.33 60.3101L198.203 60.9036H196.512L196.33 61.7032H198.042L196.428 69.2581C196.192 70.319 195.918 71.1366 195.6 71.7083C195.28 72.2778 194.896 72.5812 194.446 72.6172C194.371 72.4937 194.28 72.3483 194.179 72.1794C194.077 72.0111 193.984 71.8788 193.902 71.7788C193.795 71.6569 193.675 71.5547 193.536 71.4733C193.401 71.3924 193.24 71.352 193.059 71.352C192.774 71.352 192.556 71.4465 192.402 71.64C192.252 71.8302 192.174 72.0537 192.174 72.3057C192.174 72.6025 192.298 72.8501 192.54 73.0441C192.782 73.2386 193.156 73.3365 193.673 73.3365C194.61 73.3365 195.516 72.9271 196.398 72.1051C197.28 71.2836 197.861 70.2228 198.135 68.9297L199.678 61.7032H201.857L202.043 60.9036H199.839L200.036 59.9788C200.284 58.7841 200.564 57.9304 200.872 57.4161C201.182 56.904 201.542 56.6394 201.945 56.6203C202.049 56.7783 202.136 56.9209 202.207 57.0493C202.278 57.1772 202.372 57.3133 202.486 57.4587C202.593 57.5866 202.713 57.6915 202.848 57.7681C202.981 57.8473 203.139 57.8878 203.322 57.8878C203.626 57.8878 203.851 57.7916 203.993 57.5975C204.135 57.403 204.207 57.1838 204.207 56.9318C204.207 56.6351 204.086 56.3897 203.846 56.1929C203.601 55.9967 203.223 55.8983 202.711 55.8983C202.265 55.8983 201.801 56.0054 201.319 56.2186Z" fill="#C1002B"/>
<path d="M55.244 38.6913C88.5568 34.7414 128.123 4.5922 163.806 3.23676C201.759 1.79661 203.745 37.1419 203.745 37.1419C203.745 37.1419 206.185 -0.721886 162.004 0.010489C122.476 0.663068 79.126 37.4966 41.3573 36.5041C8.24422 35.6334 1.34906 23.1158 0 19.2064C1.62149 24.2652 10.8439 43.9519 55.244 38.6913Z" fill="#C1002B"/>
<path d="M177.324 30.6101C177.102 31.0583 176.401 32.1016 174.685 32.1016C174.615 32.1016 174.545 32.1016 174.473 32.0972C172.901 32.0229 171.316 31.3337 171.3 31.3272C171.264 31.3102 171.242 31.2714 171.249 31.231C171.252 31.214 171.536 29.3508 171.169 28.0052C170.8 26.6596 169.425 25.1391 169.41 25.1244C169.382 25.0921 169.38 25.0451 169.405 25.0112C169.469 24.9243 170.994 22.8852 172.377 22.3539C173.733 21.8314 174.836 21.9817 175.351 22.7436C175.679 23.23 175.913 24.4691 176.101 25.4643C176.193 25.9513 176.272 26.3716 176.342 26.599C176.389 26.7482 176.482 26.9936 176.591 27.2767C177.005 28.3572 177.629 29.9908 177.324 30.6101ZM175.314 37.0042C174.97 37.4835 173.884 38.1393 173.01 38.6662C172.593 38.9176 172.231 39.1357 172.046 39.2767C171.919 39.3729 171.722 39.5478 171.494 39.7484C170.655 40.4868 169.387 41.6006 168.69 41.6006C168.667 41.6006 168.647 41.6006 168.627 41.5984C168.096 41.5427 166.801 41.2246 166.236 39.4494C165.755 37.9513 165.851 36.2248 165.852 36.2073C165.854 36.1668 165.883 36.133 165.922 36.1264C165.941 36.122 167.786 35.7405 168.921 34.9251C170.052 34.1124 170.996 32.2913 171.005 32.2743C171.024 32.2361 171.066 32.2191 171.109 32.2295C171.212 32.2596 173.66 32.9745 174.64 34.0845C175.61 35.1792 175.855 36.2439 175.314 37.0042ZM165.376 33.6145C165.376 33.6145 165.409 33.9582 165.335 34.1271C165.261 34.2998 165.031 34.4512 165.031 34.4512C165.031 34.4512 164.817 34.2998 164.724 34.1036C164.628 33.9052 164.684 33.5888 164.684 33.5888L164.682 33.591C164.682 33.591 164.149 34.7032 162.36 33.5205C161.01 32.6312 161.662 31.5277 161.662 31.5277C161.662 31.5277 161.339 31.6513 161.158 31.6256C160.97 31.5977 160.764 31.419 160.764 31.419C160.764 31.419 160.852 31.1736 161.016 31.0304C161.183 30.885 161.499 30.8533 161.499 30.8533C161.499 30.8533 160.241 30.5161 160.895 28.6179C161.468 26.9635 162.601 27.3609 162.601 27.3609C162.601 27.3609 162.372 27.1002 162.333 26.9209C162.29 26.7378 162.386 26.4793 162.386 26.4793C162.386 26.4793 162.645 26.4771 162.84 26.5798C163.031 26.6799 163.166 26.9723 163.166 26.9723C163.166 26.9723 163.127 25.6704 165.015 25.666C166.968 25.6622 166.813 26.981 166.813 26.981C166.813 26.981 167.038 26.6225 167.199 26.5285C167.362 26.4323 167.636 26.4492 167.636 26.4492C167.636 26.4492 167.718 26.6973 167.674 26.9105C167.636 27.1258 167.396 27.3395 167.396 27.3395C167.396 27.3395 168.57 26.9597 169.184 28.7436C169.701 30.2384 168.627 30.8615 168.627 30.8615C168.627 30.8615 168.965 30.9407 169.102 31.0621C169.243 31.1861 169.316 31.4485 169.316 31.4485C169.316 31.4485 169.106 31.6043 168.891 31.6343C168.674 31.6622 168.386 31.5168 168.386 31.5168C168.386 31.5168 169.106 32.5115 167.543 33.6106C165.993 34.6988 165.376 33.6145 165.376 33.6145ZM163.781 40.1364C163.161 41.159 162.407 41.7198 161.656 41.7198C161.498 41.7198 161.34 41.6946 161.187 41.6454C160.628 41.4596 159.681 40.6168 158.919 39.938C158.554 39.6139 158.239 39.3341 158.047 39.1975C157.919 39.1078 157.696 38.9734 157.44 38.8154C156.45 38.2137 154.953 37.3004 154.815 36.6238C154.71 36.1007 154.632 34.7715 156.161 33.7063C157.452 32.8039 159.132 32.3831 159.149 32.3793C159.189 32.3727 159.229 32.3875 159.248 32.4219C159.257 32.4388 160.168 34.0867 161.279 34.9251C162.395 35.7657 164.414 36.1286 164.435 36.133C164.478 36.139 164.507 36.1756 164.508 36.2182C164.51 36.327 164.553 38.8712 163.781 40.1364ZM152.579 30.0378C152.594 29.4492 153.121 28.3009 153.544 27.3778C153.75 26.9307 153.927 26.5454 154.001 26.3213C154.052 26.1688 154.118 25.9098 154.197 25.6086C154.484 24.4937 154.917 22.8087 155.524 22.4824C155.786 22.3392 156.214 22.1692 156.757 22.1692C157.422 22.1692 158.077 22.4184 158.707 22.9109C159.948 23.8832 160.843 25.3632 160.852 25.3785C160.873 25.4124 160.867 25.4572 160.84 25.4846C160.826 25.4999 159.515 26.8515 159.036 28.161C158.559 29.47 158.801 31.5059 158.804 31.5277C158.808 31.5704 158.783 31.6086 158.743 31.6212C158.726 31.6278 157.053 32.1699 155.668 32.1699C155.33 32.1699 155.03 32.1377 154.779 32.0743C153.362 31.7152 152.56 30.9724 152.579 30.0378ZM161.09 18.2953C161.303 18.2237 161.627 18.1881 162.081 18.1881C162.656 18.1881 163.333 18.2439 163.929 18.2931C164.376 18.3291 164.761 18.3603 165.005 18.3603L165.073 18.3592C165.228 18.3548 165.486 18.3291 165.786 18.2991C166.334 18.2461 167.083 18.1712 167.739 18.1712C168.497 18.1712 168.977 18.2696 169.206 18.4723C169.604 18.8265 170.466 19.8404 169.889 21.6095C169.402 23.1076 168.316 24.4543 168.305 24.4669C168.277 24.4991 168.235 24.5073 168.199 24.4926C168.182 24.4838 166.461 23.7159 165.067 23.7159C163.672 23.7159 161.839 24.6396 161.821 24.6483C161.808 24.656 161.794 24.6593 161.78 24.6593C161.754 24.6593 161.728 24.6462 161.711 24.6248C161.644 24.5396 160.079 22.5326 159.927 21.0586C159.782 19.6032 160.205 18.5959 161.09 18.2953ZM177.423 32.552C178.31 31.8305 180.369 29.6367 178.976 25.5955C177.474 21.2357 174.888 20.5853 173.48 20.5853C173.378 20.5853 173.284 20.5891 173.199 20.5946C173.444 20.3066 173.738 19.8895 173.822 19.4605C173.967 18.7134 173.694 17.8728 173.683 17.8383L173.644 17.7219L173.523 17.7165C173.523 17.7165 173.474 17.7137 173.393 17.7137C173.055 17.7137 172.421 17.752 171.978 18.0072C171.661 18.1925 171.345 18.6866 171.119 19.1058C171.044 18.5472 170.816 17.7596 170.174 17.0382C169.144 15.8855 167.418 15.3013 165.006 15.3013C162.713 15.3062 160.998 15.8795 159.905 17.006C159.144 17.7913 158.868 18.662 158.769 19.2222C158.567 18.9118 158.266 18.5385 157.898 18.3423C157.279 18.0116 156.481 17.993 156.306 17.993H156.303L156.182 17.9952L156.14 18.1094C156.126 18.1466 155.813 19.0173 155.965 19.6737C156.049 20.0387 156.343 20.4836 156.579 20.7985C156.427 20.7771 156.246 20.7624 156.043 20.7624C154.811 20.7624 152.548 21.3363 151.217 25.1861C150.399 27.5494 150.368 29.4853 151.123 30.9407C151.623 31.9032 152.348 32.4197 152.832 32.6777C152.481 32.7826 152.029 32.9597 151.704 33.2368C151.133 33.7172 150.761 34.3616 150.746 34.3895L150.669 34.5217L150.791 34.6179C150.827 34.6458 151.67 35.2902 152.331 35.3798C152.718 35.4334 153.24 35.3306 153.59 35.241C153.172 36.2587 152.424 39.1679 156.133 41.6176C157.969 42.8298 159.602 43.4447 160.987 43.4447C162.413 43.4447 163.254 42.8041 163.688 42.3177C163.685 42.6779 163.725 43.1178 163.893 43.4638C164.222 44.1508 164.939 44.6651 164.97 44.6864L165.069 44.7569L165.171 44.6886C165.204 44.6673 165.97 44.153 166.236 43.5365C166.376 43.2075 166.409 42.7101 166.41 42.3264C166.864 42.8233 167.771 43.5403 169.235 43.5403C170.507 43.5403 171.933 42.9921 173.477 41.9056C177.669 38.9564 177.134 36.0258 176.738 34.9486C177.097 35.0808 177.631 35.2284 178.077 35.1683C178.814 35.0721 179.509 34.748 179.538 34.7354L179.674 34.6709L179.633 34.5261C179.621 34.4857 179.343 33.5057 178.838 33.0619C178.518 32.7804 177.866 32.6268 177.423 32.552Z" fill="#C1002B"/>
</svg>
